<?xml version="1.0" encoding="UTF-8" standalone="no"?>
<svg
   xmlns:dc="http://purl.org/dc/elements/1.1/"
   xmlns:cc="http://creativecommons.org/ns#"
   xmlns:rdf="http://www.w3.org/1999/02/22-rdf-syntax-ns#"
   xmlns:svg="http://www.w3.org/2000/svg"
   xmlns="http://www.w3.org/2000/svg"
   xmlns:sodipodi="http://sodipodi.sourceforge.net/DTD/sodipodi-0.dtd"
   xmlns:inkscape="http://www.inkscape.org/namespaces/inkscape"
   height="24"
   viewBox="0 0 24 24"
   width="24"
   version="1.1"
   id="svg44"
   sodipodi:docname="checkCompliance.svg"
   inkscape:version="1.0.2 (e86c870879, 2021-01-15)">
  <metadata
     id="metadata50">
    <rdf:RDF>
      <cc:Work
         rdf:about="">
        <dc:format>image/svg+xml</dc:format>
        <dc:type
           rdf:resource="http://purl.org/dc/dcmitype/StillImage" />
        <dc:title />
      </cc:Work>
    </rdf:RDF>
  </metadata>
  <defs
     id="defs48" />
  <sodipodi:namedview
     pagecolor="#ffffff"
     bordercolor="#666666"
     borderopacity="1"
     objecttolerance="10"
     gridtolerance="10"
     guidetolerance="10"
     inkscape:pageopacity="0"
     inkscape:pageshadow="2"
     inkscape:window-width="1870"
     inkscape:window-height="1020"
     id="namedview46"
     showgrid="false"
     inkscape:zoom="10.532945"
     inkscape:cx="-0.87020023"
     inkscape:cy="8.3709013"
     inkscape:window-x="50"
     inkscape:window-y="31"
     inkscape:window-maximized="1"
     inkscape:current-layer="g42"
     inkscape:document-rotation="0" />
  <g
     transform="translate(0 -8)"
     id="g42">
    <g
       stroke="#6e97c4"
       id="g26" />
    <path
       style="fill:#000000;stroke-width:0.104169"
       d="m 2.8751113,29.929367 c -0.165044,-0.04942 -0.41718,-0.197735 -0.560311,-0.329597 -0.5630961,-0.518771 -0.5460697,-0.210371 -0.5436045,-9.846011 0.00223,-8.625374 0.00936,-8.951359 0.2048215,-9.382091 0.154619,-0.340664 0.308108,-0.4941544 0.64877,-0.6487704 0.422689,-0.191846 0.721219,-0.202653 5.657138,-0.204821 l 5.2108957,-0.0023 2.940344,2.9469964 2.940336,2.946994 v 1.412417 1.412416 l -0.0031,1.467291 -5.437179,0.02248 H 9.3094193 4.6856473 v 0.781269 0.781269 h 3.79804 4.9450727 l -0.554617,0.601978 -0.381688,0.752222 H 4.6856473 v 0.781268 0.781269 h 3.084135 l 4.1588367,0.02715 -0.140207,1.327047 H 7.6399803 4.6856693 v 0.781269 0.781269 h 2.954481 4.1647327 c 0,0 0.20539,1.021659 0.45219,1.471574 0.297513,0.542365 1.203101,1.413016 1.203101,1.413016 0,0 -10.3161727,0.0049 -10.5850157,-0.07561 z M 16.456763,17.588902 V 16.807634 H 10.571205 4.6856473 v 0.781268 0.78127 h 5.8855577 5.885558 z m -0.811802,-4.457114 -2.2091,-2.209101 v 1.695788 c 0,1.761346 0.08164,2.201129 0.468229,2.522451 0.145449,0.120891 0.602926,0.168042 2.021395,0.208338 1.008365,0.02865 1.854813,0.03848 1.880987,0.02185 0.02621,-0.01663 -0.946504,-1.024325 -2.161511,-2.239332 z"
       id="path37"
       sodipodi:nodetypes="ccccsccccccccccccccccccccccccccccsccccccccccccccsscccc" />
    <path
       style="fill:#53c245;fill-opacity:1;stroke-width:0.00909509"
       d="m 17.469201,30.896957 c -0.323586,-0.02384 -0.500861,-0.04445 -0.704273,-0.08187 -1.343977,-0.247235 -2.529924,-0.982967 -3.352755,-2.079963 -1.056407,-1.408398 -1.354259,-3.253022 -0.795569,-4.927021 0.173546,-0.520004 0.410288,-0.985782 0.723951,-1.424347 1.284328,-1.795758 3.509488,-2.627264 5.656625,-2.113784 0.692605,0.165636 1.381788,0.49025 1.95545,0.921051 1.546983,1.161738 2.351437,3.023581 2.132814,4.936237 -0.163705,1.432194 -0.893641,2.732772 -2.037315,3.630036 -0.815337,0.639667 -1.779382,1.022286 -2.828581,1.122639 -0.139696,0.01337 -0.644567,0.02481 -0.750347,0.01709 z m 1.710636,-4.91967 c 0.90708,-1.330615 1.649407,-2.423458 1.64962,-2.428538 3.57e-4,-0.0079 -1.191576,-0.932105 -1.202307,-0.932105 -0.0022,0 -0.552155,0.808254 -1.221999,1.796123 -0.669844,0.987868 -1.219945,1.796148 -1.222446,1.796176 -0.0024,2.7e-5 -0.38274,-0.286527 -0.844977,-0.636786 -0.462238,-0.350262 -0.84476,-0.635396 -0.850054,-0.63363 -0.0052,0.0017 -0.201415,0.274583 -0.435828,0.606264 -0.31012,0.438807 -0.423478,0.605784 -0.416193,0.613068 0.03963,0.03963 2.87262,2.241449 2.88244,2.240253 0.0069,-8.37e-4 0.754666,-1.09021 1.661744,-2.420825 z"
       id="path183" />
  </g>
</svg>
